<?xml version="1.0" encoding="utf-8"?>
<!-- Generator: Adobe Illustrator 16.0.0, SVG Export Plug-In . SVG Version: 6.00 Build 0)  -->
<!DOCTYPE svg PUBLIC "-//W3C//DTD SVG 1.1//EN" "http://www.w3.org/Graphics/SVG/1.1/DTD/svg11.dtd">
<svg version="1.1" id="Layer_1" xmlns="http://www.w3.org/2000/svg" xmlns:xlink="http://www.w3.org/1999/xlink" x="0px" y="0px"
	 width="500px" height="500px" viewBox="0 0 500 500" enable-background="new 0 0 500 500" xml:space="preserve">
<g>
	<rect x="113.252" y="152.561" opacity="0.7" width="382.769" height="135.463"/>
	<g opacity="0.4">
		<image overflow="visible" width="188" height="291" xlink:href="E0270692.png"  transform="matrix(1 0 0 1 55 92)">
		</image>
	</g>
	<g>
		<g>
			<path fill="#7BB241" d="M194.318,203.114c0,15.26-3.58,29.69-9.96,42.48l-0.05,0.09l-1.74,3.33l-83.68,160.01l-83.68-160.01
				l-1.74-3.33l-0.05-0.09c-6.38-12.79-9.96-27.22-9.96-42.48c0-52.71,42.73-95.43,95.43-95.43S194.318,150.404,194.318,203.114z"/>
			<g>
				<circle fill="#FFFFFF" cx="98.888" cy="203.11" r="70.412"/>
				<g>
					<polygon fill="#7BB241" points="131.984,195.799 131.984,244.785 108.734,244.785 108.734,213.688 89.042,213.688 
						89.042,244.785 65.791,244.785 65.791,195.799 					"/>
					<g>
						<polygon fill="#7BB241" points="141.923,192.071 55.852,192.071 98.888,154.605 						"/>
						<path fill="#7BB241" d="M125.837,186.073c0,1.963-1.591,3.554-3.553,3.554h-5.48c-1.962,0-3.553-1.591-3.553-3.554v-25.47
							c0-1.963,1.591-3.554,3.553-3.554h5.48c1.962,0,3.553,1.591,3.553,3.554V186.073z"/>
					</g>
				</g>
			</g>
		</g>
		<g>
			<path fill="#FFFFFF" d="M223.776,180.957h5.169v29.416h-5.169V180.957z"/>
			<path fill="#FFFFFF" d="M236.58,180.957h4.791l15.758,20.339v-20.339h5.085v29.416h-4.329l-16.22-20.927v20.927h-5.084V180.957z"
				/>
			<path fill="#FFFFFF" d="M266.734,180.957h5.715l8.867,22.608l8.824-22.608h5.59l-12.188,29.626h-4.58L266.734,180.957z"/>
			<path fill="#FFFFFF" d="M300.271,180.957h21.811v4.623H305.44v7.648h14.75v4.623h-14.75v7.9h16.851v4.623h-22.02V180.957z"/>
			<path fill="#FFFFFF" d="M326.393,206.087l3.109-3.698c2.815,2.438,5.674,3.824,9.287,3.824c3.193,0,5.211-1.513,5.211-3.698
				v-0.084c0-2.101-1.177-3.236-6.64-4.496c-6.261-1.513-9.792-3.362-9.792-8.783v-0.084c0-5.042,4.203-8.53,10.044-8.53
				c4.286,0,7.69,1.303,10.674,3.698l-2.773,3.908c-2.647-1.975-5.295-3.026-7.984-3.026c-3.025,0-4.79,1.555-4.79,3.488v0.084
				c0,2.269,1.344,3.278,7.018,4.623c6.219,1.513,9.413,3.74,9.413,8.614v0.084c0,5.505-4.329,8.783-10.506,8.783
				C334.166,210.793,329.922,209.238,326.393,206.087z"/>
			<path fill="#FFFFFF" d="M362.031,185.748h-9.329v-4.791h23.868v4.791h-9.328v24.625h-5.211V185.748z"/>
			<path fill="#FFFFFF" d="M394.934,180.957h5.168v29.416h-5.168V180.957z"/>
			<path fill="#FFFFFF" d="M407.736,180.957h4.791l15.758,20.339v-20.339h5.085v29.416h-4.329l-16.221-20.927v20.927h-5.084V180.957
				z"/>
			<path fill="#FFFFFF" d="M223.482,231.383h11.598c6.892,0,11.178,3.908,11.178,9.833v0.084c0,6.598-5.295,10.043-11.767,10.043
				h-5.841v9.455h-5.168V231.383z M234.66,246.679c3.908,0,6.346-2.185,6.346-5.253v-0.084c0-3.446-2.479-5.253-6.346-5.253h-6.009
				v10.59H234.66z"/>
			<path fill="#FFFFFF" d="M251.149,231.383h13.11c3.699,0,6.598,1.093,8.489,2.942c1.555,1.597,2.437,3.782,2.437,6.345v0.084
				c0,4.833-2.898,7.732-6.975,8.909l7.941,11.136h-6.135l-7.229-10.253h-6.471v10.253h-5.169V231.383z M263.883,245.965
				c3.697,0,6.051-1.933,6.051-4.917v-0.084c0-3.151-2.27-4.875-6.094-4.875h-7.521v9.875H263.883z"/>
			<path fill="#FFFFFF" d="M279.518,246.175v-0.084c0-8.278,6.388-15.212,15.423-15.212c9.034,0,15.338,6.85,15.338,15.128v0.084
				c0,8.278-6.388,15.212-15.422,15.212C285.821,261.303,279.518,254.453,279.518,246.175z M304.857,246.175v-0.084
				c0-5.715-4.16-10.463-10.001-10.463s-9.917,4.665-9.917,10.379v0.084c0,5.716,4.16,10.422,10.001,10.422
				S304.857,251.891,304.857,246.175z"/>
			<path fill="#FFFFFF" d="M316.375,231.383h11.598c6.892,0,11.178,3.908,11.178,9.833v0.084c0,6.598-5.295,10.043-11.766,10.043
				h-5.842v9.455h-5.168V231.383z M327.553,246.679c3.908,0,6.346-2.185,6.346-5.253v-0.084c0-3.446-2.48-5.253-6.346-5.253h-6.01
				v10.59H327.553z"/>
			<path fill="#FFFFFF" d="M344.041,231.383h21.811v4.623H349.21v7.648h14.75v4.623h-14.75v7.9h16.851v4.623h-22.02V231.383z"/>
			<path fill="#FFFFFF" d="M372.162,231.383h13.111c3.698,0,6.598,1.093,8.488,2.942c1.555,1.597,2.438,3.782,2.438,6.345v0.084
				c0,4.833-2.899,7.732-6.976,8.909l7.942,11.136h-6.135l-7.229-10.253h-6.472v10.253h-5.169V231.383z M384.896,245.965
				c3.698,0,6.052-1.933,6.052-4.917v-0.084c0-3.151-2.27-4.875-6.094-4.875h-7.522v9.875H384.896z"/>
			<path fill="#FFFFFF" d="M409.208,236.173h-9.329v-4.791h23.869v4.791h-9.329v24.625h-5.211V236.173z"/>
			<path fill="#FFFFFF" d="M438.716,249.201l-11.683-17.818h6.136l8.194,12.985l8.32-12.985h5.926l-11.683,17.692v11.724h-5.211
				V249.201z"/>
		</g>
	</g>
	<g>
		<g>
			<circle fill="#FFFFFF" cx="98.887" cy="205.88" r="80.772"/>
			<path fill="#7BB241" d="M98.887,296.633c-50.041,0-90.752-40.711-90.752-90.753c0-50.041,40.711-90.752,90.752-90.752
				c50.042,0,90.753,40.711,90.753,90.752C189.64,255.922,148.928,296.633,98.887,296.633z M98.887,135.088
				c-39.035,0-70.792,31.757-70.792,70.792c0,39.036,31.757,70.794,70.792,70.794c39.036,0,70.793-31.758,70.793-70.794
				C169.68,166.845,137.922,135.088,98.887,135.088z"/>
		</g>
		<g>
			<g>
				<polygon fill="#7BB241" points="134.6,197.362 134.6,250.221 109.513,250.221 109.513,216.666 88.262,216.666 88.262,250.221 
					63.175,250.221 63.175,197.362 				"/>
			</g>
			<g>
				<g>
					<polygon fill="#7BB241" points="145.325,193.34 52.45,193.34 98.887,152.911 					"/>
				</g>
				<g>
					<path fill="#7BB241" d="M127.968,186.867c0,2.117-1.717,3.834-3.834,3.834h-5.913c-2.118,0-3.835-1.717-3.835-3.834v-27.483
						c0-2.119,1.717-3.835,3.835-3.835h5.913c2.117,0,3.834,1.716,3.834,3.835V186.867z"/>
				</g>
			</g>
		</g>
	</g>
</g>
</svg>
